bcast,nb_sub,interference,mean,sd,base,inc_percentage,key
Blocking broadcast,No subdivision,15s interference / 15s idle,806.3336964953996,1.7237489007182223,452.27858093099894,78.28252994771302,Blocking broadcast No subdivision
Blocking broadcast,No subdivision,15s interference / 45s idle,583.1053916794029,0.49035096126951183,452.27858093099894,28.92615663538649,Blocking broadcast No subdivision
Blocking broadcast,No subdivision,30s interference / 30s idle,820.0434955036025,2.226424497235106,452.27858093099894,81.3138030581888,Blocking broadcast No subdivision
Blocking broadcast,No subdivision,45s interference / 15s idle,1243.0699435615982,18.449608901658838,452.27858093099894,174.8460784949807,Blocking broadcast No subdivision
Blocking broadcast,No subdivision,No interference,452.27858093099894,0.9935775384973979,452.27858093099894,0,Blocking broadcast No subdivision
Blocking broadcast,50 subdivisions,15s interference / 15s idle,568.4997471419991,0.5959457990862336,349.2970526612011,62.75538050228341,Blocking broadcast 50 subdivisions
Blocking broadcast,50 subdivisions,15s interference / 45s idle,442.7107524613966,0.9997204374888417,349.2970526612011,26.743340399955116,Blocking broadcast 50 subdivisions
Blocking broadcast,50 subdivisions,30s interference / 30s idle,574.3409540692013,1.1866696249573727,349.2970526612011,64.42765539916546,Blocking broadcast 50 subdivisions
Blocking broadcast,50 subdivisions,45s interference / 15s idle,796.7910396884014,3.76082626653088,349.2970526612011,128.1127291564194,Blocking broadcast 50 subdivisions
Blocking broadcast,50 subdivisions,Constant interference,1415.5902893819996,28.517077845638234,349.2970526612011,305.2683177819551,Blocking broadcast 50 subdivisions
Blocking broadcast,50 subdivisions,No interference,349.2970526612011,0.8635629158099951,349.2970526612011,0,Blocking broadcast 50 subdivisions
Immediate broadcast,No subdivision,15s interference / 15s idle,624.5776670891986,1.959856346963068,372.8337320333987,67.52177000799072,Immediate broadcast No subdivision
Immediate broadcast,No subdivision,15s interference / 45s idle,475.8835006066016,4.66630290276522,372.8337320333987,27.639604391796734,Immediate broadcast No subdivision
Immediate broadcast,No subdivision,30s interference / 30s idle,599.1285689504017,1.9709897635847538,372.8337320333987,60.69591280885802,Immediate broadcast No subdivision
Immediate broadcast,No subdivision,45s interference / 15s idle,860.3315350140001,25.319087919438626,372.8337320333987,130.75474698113715,Immediate broadcast No subdivision
Immediate broadcast,No subdivision,Constant interference,1490.4705307899976,21.719331693619402,372.8337320333987,299.7681547378015,Immediate broadcast No subdivision
Immediate broadcast,No subdivision,No interference,372.8337320333987,2.3377166659439035,372.8337320333987,0,Immediate broadcast No subdivision
Immediate broadcast,50 subdivisions,15s interference / 15s idle,599.0585518880005,0.5914330165218571,379.13577337219857,58.00633808825608,Immediate broadcast 50 subdivisions
Immediate broadcast,50 subdivisions,15s interference / 45s idle,469.5908245295956,0.9175208367927918,379.13577337219857,23.85822112032595,Immediate broadcast 50 subdivisions
Immediate broadcast,50 subdivisions,30s interference / 30s idle,595.5379810324026,0.34887352745151146,379.13577337219857,57.077760227010145,Immediate broadcast 50 subdivisions
Immediate broadcast,50 subdivisions,45s interference / 15s idle,832.9117061445983,1.8036031473241538,379.13577337219857,119.6869207926013,Immediate broadcast 50 subdivisions
Immediate broadcast,50 subdivisions,Constant interference,1455.862424421199,17.55139814527068,379.13577337219857,283.9950030228287,Immediate broadcast 50 subdivisions
Immediate broadcast,50 subdivisions,No interference,379.13577337219857,1.289690029252217,379.13577337219857,0,Immediate broadcast 50 subdivisions
