remaining,time
0,0
0.039577836411609495,15.0
0.07048740189180677,60.0
0.11006523830341627,75.0
0.14097480378361354,120.0
0.18055264019522305,135.0
0.21146220567542032,180.0
0.2510400420870298,195.0
0.2819496075672271,240.0
0.3215274439788366,255.0
0.3524370094590339,300.0
0.3920148458706434,315.0
0.4229244113508407,360.0
0.4625022477624502,375.0
0.4934118132426475,420.0
0.532989649654257,435.0
0.5638992151344543,480.0
0.6034770515460638,495.0
0.6343866170262611,540.0
0.6739644534378706,555.0
0.7048740189180679,600.0
0.7444518553296774,615.0
0.7753614208098747,660.0
0.8149392572214842,675.0
0.8458488227016815,720.0
0.885426659113291,735.0
0.9163362245934883,780.0
0.9559140610050978,795.0
0.9868236264852951,840.0
1.0,844.9938455620731
