remaining,time
0,0
0.12022763098132462,45.0
0.1550716459410217,60.0
0.27529927692234635,105.0
0.3101432918820434,120.0
0.43037092286336803,165.0
0.4652149378230651,180.0
0.5854425688043897,225.0
0.6202865837640869,240.0
0.7405142147454115,285.0
0.7753582297051086,300.0
0.8955858606864332,345.0
0.9304298756461303,360.0
1.0,386.03940184440984
