number_of_connections,runtime_predicted,application_type,model
0,78.0,ptask,Ptask_L07
1,234.0,ptask,Ptask_L07
2,390.0,ptask,Ptask_L07
3,545.0,ptask,Ptask_L07
4,701.0,ptask,Ptask_L07
5,857.0,ptask,Ptask_L07
6,1012.0,ptask,Ptask_L07
7,1168.0,ptask,Ptask_L07
8,1324.0,ptask,Ptask_L07
9,1479.0,ptask,Ptask_L07
10,1635.0,ptask,Ptask_L07
11,1791.0,ptask,Ptask_L07
12,1947.0,ptask,Ptask_L07
13,2102.0,ptask,Ptask_L07
14,2258.0,ptask,Ptask_L07
15,2414.0,ptask,Ptask_L07
16,2569.0,ptask,Ptask_L07
17,2725.0,ptask,Ptask_L07
18,2881.0,ptask,Ptask_L07
19,3036.0,ptask,Ptask_L07
20,3192.0,ptask,Ptask_L07
21,3348.0,ptask,Ptask_L07
22,3503.0,ptask,Ptask_L07
23,3659.0,ptask,Ptask_L07
24,3815.0,ptask,Ptask_L07
25,3970.0,ptask,Ptask_L07
26,4126.0,ptask,Ptask_L07
27,4282.0,ptask,Ptask_L07
28,4437.0,ptask,Ptask_L07
29,4593.0,ptask,Ptask_L07
30,4749.0,ptask,Ptask_L07
31,4904.0,ptask,Ptask_L07
32,5060.0,ptask,Ptask_L07
0,77.84582,smpi,Ptask_L07
0,84.53679,smpi,SMPI default
1,81.688338,smpi,Ptask_L07
1,89.657619,smpi,SMPI default
2,85.52239,smpi,Ptask_L07
2,94.402638,smpi,SMPI default
3,89.349444,smpi,Ptask_L07
3,99.043285,smpi,SMPI default
4,93.169899,smpi,Ptask_L07
4,103.593008,smpi,SMPI default
5,96.98659,smpi,Ptask_L07
5,108.023064,smpi,SMPI default
6,100.796535,smpi,Ptask_L07
6,112.411477,smpi,SMPI default
7,104.601286,smpi,Ptask_L07
7,116.752155,smpi,SMPI default
8,108.402303,smpi,Ptask_L07
8,121.050674,smpi,SMPI default
9,112.192185,smpi,Ptask_L07
9,125.336402,smpi,SMPI default
10,115.989449,smpi,Ptask_L07
10,129.554832,smpi,SMPI default
11,119.783493,smpi,Ptask_L07
11,133.818348,smpi,SMPI default
12,123.575611,smpi,Ptask_L07
12,138.036293,smpi,SMPI default
13,127.366687,smpi,Ptask_L07
13,142.235737,smpi,SMPI default
14,131.155512,smpi,Ptask_L07
14,146.410406,smpi,SMPI default
15,134.942874,smpi,Ptask_L07
15,150.595542,smpi,SMPI default
16,138.729454,smpi,Ptask_L07
16,154.774683,smpi,SMPI default
17,142.514969,smpi,Ptask_L07
17,158.940802,smpi,SMPI default
18,146.299948,smpi,Ptask_L07
18,163.103828,smpi,SMPI default
19,150.084678,smpi,Ptask_L07
19,167.257587,smpi,SMPI default
20,153.867765,smpi,Ptask_L07
20,171.393835,smpi,SMPI default
21,157.649187,smpi,Ptask_L07
21,175.540003,smpi,SMPI default
22,161.431611,smpi,Ptask_L07
22,179.703142,smpi,SMPI default
23,165.214093,smpi,Ptask_L07
23,183.87726,smpi,SMPI default
24,168.993835,smpi,Ptask_L07
24,188.005318,smpi,SMPI default
25,172.770857,smpi,Ptask_L07
25,192.133981,smpi,SMPI default
26,176.548677,smpi,Ptask_L07
26,196.253629,smpi,SMPI default
27,180.326948,smpi,Ptask_L07
27,200.405714,smpi,SMPI default
28,184.104747,smpi,Ptask_L07
28,204.523543,smpi,SMPI default
29,187.881602,smpi,Ptask_L07
29,208.627803,smpi,SMPI default
30,191.65833,smpi,Ptask_L07
30,212.765878,smpi,SMPI default
31,195.436631,smpi,Ptask_L07
31,216.892358,smpi,SMPI default
32,199.214747,smpi,Ptask_L07
32,221.020431,smpi,SMPI default
