uuid,total_connection_tcp,nb_tcp_pair,seed,mpi_runtime,graph
d4c2684c,12,5,4,154.32807259499896,GraphB_balanced
97d06b8c,12,5,4,154.86459120700238,GraphB_balanced
13dc851d,2,2,3,112.68026466199991,GraphB_x4
06f2d07f,2,2,3,112.65418134900028,GraphB_x4
47521e5b,2,2,4,113.26713658700464,GraphA_balanced
315218f8,2,2,4,113.16593300800014,GraphA_balanced
2fe60a42,4,2,3,113.05909190700186,GraphB_x4
3d058045,4,2,3,112.95722607900007,GraphB_x4
59e47a7b,2,2,3,112.10476571999969,GraphA_x4
ac5a03f7,2,2,3,113.67927371299812,GraphA_x4
2a293a91,8,4,3,139.67663654099988,GraphB_x4
486a9066,8,4,3,140.76450240200208,GraphB_x4
7f01d7ec,2,2,3,112.60884917099978,GraphA_balanced
e5b3aa5d,2,2,3,112.9332799440017,GraphA_balanced
b0aad9dd,32,5,3,150.98829368599942,GraphB_balanced
4ae906a0,32,5,3,150.589677725,GraphB_balanced
8c6bc1b5,32,5,4,150.62032587599967,GraphB_balanced
3f32b418,32,5,4,149.98281765600402,GraphB_balanced
44ecce56,8,4,4,138.45208730600098,GraphA_x4
3d38576c,8,4,4,138.8217928610029,GraphA_x4
3048f8bf,4,2,4,112.91796108099516,GraphB_balanced
cd27d9bf,4,2,4,112.77588860200193,GraphB_balanced
820c1cd4,32,5,3,146.0391851919994,GraphA_x4
3094479a,32,5,3,144.07397783300075,GraphA_x4
ae0fd7d7,16,5,3,146.26570724900012,GraphA_x4
f7695ca0,16,5,3,148.62747308899998,GraphA_x4
d4296c40,4,2,4,106.69565612400038,GraphB_x4
77540b1e,4,2,4,104.16250365700036,GraphB_x4
644fcda9,32,5,4,142.00415952099866,GraphA_balanced
d9645850,32,5,4,143.80664052399882,GraphA_balanced
2a0aef32,24,5,3,145.18680508500074,GraphA_balanced
960d3d08,24,5,3,150.32212168300066,GraphA_balanced
e8f648b0,8,4,3,136.76014827000472,GraphA_x4
3411ce40,8,4,3,137.1830691039977,GraphA_x4
2b1f8006,4,3,3,125.76711816899478,GraphB_balanced
c9094209,4,3,3,126.99862954799757,GraphB_balanced
2ffe1e31,16,4,4,142.19442565099962,GraphB_x4
841ddee6,16,4,4,143.2305812559971,GraphB_x4
c147281c,12,4,4,142.58945188700451,GraphB_x4
7f4a2194,12,4,4,141.5911171750004,GraphB_x4
594632cc,4,2,3,113.08921764800016,GraphA_x4
0fc7a704,4,2,3,113.64500987799966,GraphA_x4
b5903ac7,4,3,3,127.2241517729999,GraphA_balanced
df4449b3,4,3,3,126.80924185500044,GraphA_balanced
ba86d994,1,1,1,99.83807869799965,single
08350ed2,1,1,1,99.68953930499993,single
c60e0940,2,2,4,112.5746532060002,GraphB_balanced
690345fc,2,2,4,111.13297525100279,GraphB_balanced
50f40c53,4,2,4,108.20452149199993,GraphA_x4
9d279057,4,2,4,108.99178867399858,GraphA_x4
633c04ed,12,4,3,138.10829071099943,GraphA_x4
ddd9b4a7,12,4,3,138.87481619900063,GraphA_x4
9e9aabd8,16,5,3,154.6532491809994,GraphB_balanced
5e506dbc,16,5,3,154.81297465999887,GraphB_balanced
85325b4e,12,4,4,138.1151987739995,GraphA_x4
9dc993ce,12,4,4,139.72962976200142,GraphA_x4
030d8618,12,5,3,154.273453368,GraphB_balanced
480b97b3,12,5,3,154.4005570890004,GraphB_balanced
d1a6eb91,4,2,4,112.84259183099995,GraphA_balanced
c7bd7e66,4,2,4,113.18465570300032,GraphA_balanced
d2f08e94,12,4,3,140.84356986000054,GraphB_x4
c7dd2403,12,4,3,140.55281932800062,GraphB_x4
e0b4cc20,8,5,3,154.0879504539989,GraphB_balanced
b45b91a1,8,5,3,154.36035993199766,GraphB_balanced
87e7bad0,32,4,4,139.2511263920023,GraphB_x4
34c89279,32,4,4,139.0531274619998,GraphB_x4
5822dbc6,8,5,3,149.9174105560005,GraphA_balanced
61ff5452,8,5,3,149.67858916000114,GraphA_balanced
d43829f4,8,4,4,139.72392535400104,GraphB_balanced
91d81bd9,8,4,4,140.48560859200006,GraphB_balanced
8bb9b94c,12,5,3,151.35268236399997,GraphA_balanced
21877c61,12,5,3,149.8734322700002,GraphA_balanced
3eeb5090,32,5,3,146.16644808700218,GraphA_balanced
c80c09d3,32,5,3,146.63790251699905,GraphA_balanced
d96cf38c,8,4,4,132.15480849400046,GraphA_balanced
a694004c,8,4,4,131.1367175139967,GraphA_balanced
8a6f907c,2,2,3,110.69691423700078,GraphB_balanced
c7064a85,2,2,3,110.59504123399893,GraphB_balanced
c8d3cea7,24,5,3,152.82360304800022,GraphB_balanced
f5993836,24,5,3,153.45349671200162,GraphB_balanced
3a06808a,16,5,3,148.50010196699802,GraphB_x4
79cab0fa,16,5,3,148.5403906470001,GraphB_x4
74ef66b4,32,5,3,144.35955720399943,GraphB_x4
d031fc08,32,5,3,143.0184980610029,GraphB_x4
d1b1d04f,2,2,4,107.20009154899891,GraphA_x4
d5cb5d36,2,2,4,107.79160033100194,GraphA_x4
1a477d56,24,4,4,141.03573016500013,GraphB_x4
13550ed4,24,4,4,141.64940723700002,GraphB_x4
fa54466c,0,0,0,86.77087307799955,
1ec0c573,0,0,0,87.1272466870014,
9795bd7d,24,5,4,152.7288556789999,GraphB_balanced
71366550,24,5,4,152.9247016580011,GraphB_balanced
29dc3b4e,24,5,3,148.29316723700322,GraphA_x4
e9ec1681,24,5,3,147.82973055600087,GraphA_x4
4253ecec,24,4,4,139.84771009199906,GraphA_x4
1f40c6f5,24,4,4,141.2460547040009,GraphA_x4
775c24d6,16,4,4,138.76431357700494,GraphA_x4
280333e2,16,4,4,138.03770250099842,GraphA_x4
9126b8e2,2,2,4,105.1541395969998,GraphB_x4
568435a2,2,2,4,104.95830389699995,GraphB_x4
6a3ddbf7,16,5,4,153.76618622499882,GraphB_balanced
050b12d1,16,5,4,153.64142585700029,GraphB_balanced
ccdb9359,12,5,4,148.33458511500064,GraphA_balanced
199027ce,12,5,4,147.53621164699962,GraphA_balanced
9937ade9,8,4,4,141.6554380699963,GraphB_x4
86920c85,8,4,4,141.62177987999894,GraphB_x4
55b1d579,16,5,4,147.52418606600258,GraphA_balanced
cd12d81e,16,5,4,147.50017338899852,GraphA_balanced
e37e6f8e,24,5,4,146.89946340000097,GraphA_balanced
f6a3611f,24,5,4,145.9135423279995,GraphA_balanced
286ec732,32,4,4,139.53245143699678,GraphA_x4
f5969a92,32,4,4,139.22593419199984,GraphA_x4
587a0974,24,5,3,147.82299827400132,GraphB_x4
7ba8cf52,24,5,3,147.04515746800095,GraphB_x4
ff982996,16,5,3,147.4016931669994,GraphA_balanced
ee732014,16,5,3,148.30063177699958,GraphA_balanced
