,nb_sub,bcast,interference,runtime
0,1_subdivision,Bcast,no_kali,449.8588685290015
1,1_subdivision,Bcast,no_kali,449.62858074399986
2,1_subdivision,Bcast,no_kali,449.63851863399765
3,1_subdivision,Bcast,no_kali,449.93750889100187
4,1_subdivision,Bcast,no_kali,449.7936026639982
5,1_subdivision,Bcast,noper,513.1468822580064
6,1_subdivision,Bcast,noper,513.6466499579983
7,1_subdivision,Bcast,noper,513.4350656060051
8,1_subdivision,Bcast,noper,513.4008049639959
9,1_subdivision,Bcast,noper,512.7844329960027
10,1_subdivision,Bcast,per10s,482.000583740999
11,1_subdivision,Bcast,per10s,482.3634771679972
12,1_subdivision,Bcast,per10s,482.2051326639994
13,1_subdivision,Bcast,per10s,481.9017275840015
14,1_subdivision,Bcast,per10s,482.4493890679951
15,1_subdivision,Bcast,per10sidle20sinter,488.4945547390016
16,1_subdivision,Bcast,per10sidle20sinter,488.81556978900335
17,1_subdivision,Bcast,per10sidle20sinter,488.6090510420036
18,1_subdivision,Bcast,per10sidle20sinter,488.53979109799553
19,1_subdivision,Bcast,per10sidle20sinter,488.428846020004
20,1_subdivision,Bcast,per20sidle10sinter,475.7728811350026
21,1_subdivision,Bcast,per20sidle10sinter,475.15700067199936
22,1_subdivision,Bcast,per20sidle10sinter,475.8879451519897
23,1_subdivision,Bcast,per20sidle10sinter,475.8342763469991
24,1_subdivision,Bcast,per20sidle10sinter,475.58933854100184
25,1_subdivision,Bcast,periods30s,480.3955916350005
26,1_subdivision,Bcast,periods30s,479.8768635909946
27,1_subdivision,Bcast,periods30s,480.2791336569935
28,1_subdivision,Bcast,periods30s,480.02452781700407
29,1_subdivision,Bcast,periods30s,479.71654782000036
30,50_subdivision,Bcast,no_kali,345.6759181840025
31,50_subdivision,Bcast,no_kali,346.49568934099807
32,50_subdivision,Bcast,no_kali,346.5037388819983
33,50_subdivision,Bcast,no_kali,345.87369096799375
34,50_subdivision,Bcast,no_kali,346.1033077210013
35,50_subdivision,Bcast,noper,402.5736447160016
36,50_subdivision,Bcast,noper,402.2147495430036
37,50_subdivision,Bcast,noper,402.0113230269999
38,50_subdivision,Bcast,noper,402.3562457490043
39,50_subdivision,Bcast,noper,403.4191769259997
40,50_subdivision,Bcast,per10s,376.1593315670034
41,50_subdivision,Bcast,per10s,376.29960610700067
42,50_subdivision,Bcast,per10s,376.311907463998
43,50_subdivision,Bcast,per10s,375.9884666439903
44,50_subdivision,Bcast,per10s,375.2456354280002
45,50_subdivision,Bcast,per10sidle20sinter,385.20888387400186
46,50_subdivision,Bcast,per10sidle20sinter,384.9735844429997
47,50_subdivision,Bcast,per10sidle20sinter,384.7877025760026
48,50_subdivision,Bcast,per10sidle20sinter,384.2809556939973
49,50_subdivision,Bcast,per10sidle20sinter,384.53311951300566
50,50_subdivision,Bcast,per20sidle10sinter,364.91102812599996
51,50_subdivision,Bcast,per20sidle10sinter,366.43708272100054
52,50_subdivision,Bcast,per20sidle10sinter,365.4250531839998
53,50_subdivision,Bcast,per20sidle10sinter,365.1995655090004
54,50_subdivision,Bcast,per20sidle10sinter,365.2420001089995
55,50_subdivision,Bcast,periods30s,373.57666467800027
56,50_subdivision,Bcast,periods30s,375.1326073710006
57,50_subdivision,Bcast,periods30s,373.8624154190002
58,50_subdivision,Bcast,periods30s,374.58839276199984
59,50_subdivision,Bcast,periods30s,375.0638168980004
60,1_subdivision,IBcast,no_kali,374.66124827900063
61,1_subdivision,IBcast,no_kali,380.2654885619995
62,1_subdivision,IBcast,no_kali,378.87027599499925
63,1_subdivision,IBcast,no_kali,375.645495621
64,1_subdivision,IBcast,no_kali,379.0944070340011
65,1_subdivision,IBcast,noper,436.79153014400003
66,1_subdivision,IBcast,noper,440.13864461799864
67,1_subdivision,IBcast,noper,432.85481517199884
68,1_subdivision,IBcast,noper,432.07124589799975
69,1_subdivision,IBcast,noper,433.9733765109995
70,1_subdivision,IBcast,per10s,405.355053157
71,1_subdivision,IBcast,per10s,408.54776681400114
72,1_subdivision,IBcast,per10s,408.9278610459996
73,1_subdivision,IBcast,per10s,404.95768002900144
74,1_subdivision,IBcast,per10s,409.5844264359985
75,1_subdivision,IBcast,per10sidle20sinter,414.9267795190008
76,1_subdivision,IBcast,per10sidle20sinter,421.04037548600166
77,1_subdivision,IBcast,per10sidle20sinter,424.6565044270028
78,1_subdivision,IBcast,per10sidle20sinter,422.8577554980002
79,1_subdivision,IBcast,per10sidle20sinter,418.3048470729991
80,1_subdivision,IBcast,per20sidle10sinter,404.6836994749974
81,1_subdivision,IBcast,per20sidle10sinter,404.310104523
82,1_subdivision,IBcast,per20sidle10sinter,402.8561167959997
83,1_subdivision,IBcast,per20sidle10sinter,400.99430027299974
84,1_subdivision,IBcast,per20sidle10sinter,401.5963257259991
85,1_subdivision,IBcast,periods30s,409.3153278959999
86,1_subdivision,IBcast,periods30s,415.80932115500036
87,1_subdivision,IBcast,periods30s,416.0589454680012
88,1_subdivision,IBcast,periods30s,409.1677514549992
89,1_subdivision,IBcast,periods30s,407.0739892720012
90,50_subdivision,IBcast,no_kali,374.03819860899983
91,50_subdivision,IBcast,no_kali,373.0204220579999
92,50_subdivision,IBcast,no_kali,373.9034860859975
93,50_subdivision,IBcast,no_kali,373.90455433999887
94,50_subdivision,IBcast,no_kali,373.8107000960008
95,50_subdivision,IBcast,noper,429.8125499259986
96,50_subdivision,IBcast,noper,428.9286071770002
97,50_subdivision,IBcast,noper,429.674268761999
98,50_subdivision,IBcast,noper,429.22700662100027
99,50_subdivision,IBcast,noper,433.81657895299935
100,50_subdivision,IBcast,per10s,402.8719530390008
101,50_subdivision,IBcast,per10s,402.57041600999946
102,50_subdivision,IBcast,per10s,403.5656174709948
103,50_subdivision,IBcast,per10s,402.24057994600304
104,50_subdivision,IBcast,per10s,403.07724786400007
105,50_subdivision,IBcast,per10sidle20sinter,411.8735245050048
106,50_subdivision,IBcast,per10sidle20sinter,411.67381869300146
107,50_subdivision,IBcast,per10sidle20sinter,410.71223602700053
108,50_subdivision,IBcast,per10sidle20sinter,412.68875449700136
109,50_subdivision,IBcast,per10sidle20sinter,413.0188507599996
110,50_subdivision,IBcast,per20sidle10sinter,391.8979069489942
111,50_subdivision,IBcast,per20sidle10sinter,393.5615486320021
112,50_subdivision,IBcast,per20sidle10sinter,392.9548477659992
113,50_subdivision,IBcast,per20sidle10sinter,392.84719490199996
114,50_subdivision,IBcast,per20sidle10sinter,393.4209059399996
115,50_subdivision,IBcast,periods30s,401.18746208200173
116,50_subdivision,IBcast,periods30s,401.54318002699796
117,50_subdivision,IBcast,periods30s,402.22176634900006
118,50_subdivision,IBcast,periods30s,403.4623392970025
119,50_subdivision,IBcast,periods30s,401.4581171829997
